<?xml version="1.0" encoding="UTF-8"?>
<testsuite xmlns:xsi="http://www.w3.org/2001/XMLSchema-instance" xsi:noNamespaceSchemaLocation="https://maven.apache.org/surefire/maven-surefire-plugin/xsd/surefire-test-report.xsd" name="fi.vamk.e1901111.ReferenceValidatorTest" time="0.201" tests="11" errors="0" skipped="0" failures="0">
  <properties>
    <property name="sun.desktop" value="windows"/>
    <property name="awt.toolkit" value="sun.awt.windows.WToolkit"/>
    <property name="file.encoding.pkg" value="sun.io"/>
    <property name="java.specification.version" value="1.8"/>
    <property name="sun.cpu.isalist" value="amd64"/>
    <property name="sun.jnu.encoding" value="Cp1252"/>
    <property name="java.class.path" value="C:\Users\hinda\mvnproject\target\test-classes;C:\Users\hinda\mvnproject\target\classes;C:\Users\hinda\.m2\repository\junit\junit\4.11\junit-4.11.jar;C:\Users\hinda\.m2\repository\org\hamcrest\hamcrest-core\1.3\hamcrest-core-1.3.jar;"/>
    <property name="java.vm.vendor" value="Oracle Corporation"/>
    <property name="sun.arch.data.model" value="64"/>
    <property name="user.variant" value=""/>
    <property name="java.vendor.url" value="http://java.oracle.com/"/>
    <property name="user.timezone" value="Europe/Helsinki"/>
    <property name="java.vm.specification.version" value="1.8"/>
    <property name="os.name" value="Windows 10"/>
    <property name="user.country" value="FI"/>
    <property name="sun.java.launcher" value="SUN_STANDARD"/>
    <property name="sun.boot.library.path" value="C:\Program Files\Java\jre1.8.0_281\bin"/>
    <property name="sun.java.command" value="C:\Users\hinda\AppData\Local\Temp\surefire3873303244109497798\surefirebooter4845365103865028570.jar C:\Users\hinda\AppData\Local\Temp\surefire3873303244109497798 2021-04-17T14-22-13_480-jvmRun1 surefire8530698560715769127tmp surefire_0615275912386058239tmp"/>
    <property name="surefire.test.class.path" value="C:\Users\hinda\mvnproject\target\test-classes;C:\Users\hinda\mvnproject\target\classes;C:\Users\hinda\.m2\repository\junit\junit\4.11\junit-4.11.jar;C:\Users\hinda\.m2\repository\org\hamcrest\hamcrest-core\1.3\hamcrest-core-1.3.jar;"/>
    <property name="sun.cpu.endian" value="little"/>
    <property name="user.home" value="C:\Users\hinda"/>
    <property name="user.language" value="fi"/>
    <property name="java.specification.vendor" value="Oracle Corporation"/>
    <property name="java.home" value="C:\Program Files\Java\jre1.8.0_281"/>
    <property name="basedir" value="C:\Users\hinda\mvnproject"/>
    <property name="file.separator" value="\"/>
    <property name="line.separator" value="&#10;"/>
    <property name="java.vm.specification.vendor" value="Oracle Corporation"/>
    <property name="java.specification.name" value="Java Platform API Specification"/>
    <property name="java.awt.graphicsenv" value="sun.awt.Win32GraphicsEnvironment"/>
    <property name="surefire.real.class.path" value="C:\Users\hinda\AppData\Local\Temp\surefire3873303244109497798\surefirebooter4845365103865028570.jar"/>
    <property name="sun.boot.class.path" value="C:\Program Files\Java\jre1.8.0_281\lib\resources.jar;C:\Program Files\Java\jre1.8.0_281\lib\rt.jar;C:\Program Files\Java\jre1.8.0_281\lib\sunrsasign.jar;C:\Program Files\Java\jre1.8.0_281\lib\jsse.jar;C:\Program Files\Java\jre1.8.0_281\lib\jce.jar;C:\Program Files\Java\jre1.8.0_281\lib\charsets.jar;C:\Program Files\Java\jre1.8.0_281\lib\jfr.jar;C:\Program Files\Java\jre1.8.0_281\classes"/>
    <property name="user.script" value=""/>
    <property name="sun.management.compiler" value="HotSpot 64-Bit Tiered Compilers"/>
    <property name="java.runtime.version" value="1.8.0_281-b09"/>
    <property name="user.name" value="hinda"/>
    <property name="path.separator" value=";"/>
    <property name="os.version" value="10.0"/>
    <property name="java.endorsed.dirs" value="C:\Program Files\Java\jre1.8.0_281\lib\endorsed"/>
    <property name="java.runtime.name" value="Java(TM) SE Runtime Environment"/>
    <property name="file.encoding" value="Cp1252"/>
    <property name="java.vm.name" value="Java HotSpot(TM) 64-Bit Server VM"/>
    <property name="localRepository" value="C:\Users\hinda\.m2\repository"/>
    <property name="java.vendor.url.bug" value="http://bugreport.sun.com/bugreport/"/>
    <property name="java.io.tmpdir" value="C:\Users\hinda\AppData\Local\Temp\"/>
    <property name="java.version" value="1.8.0_281"/>
    <property name="user.dir" value="C:\Users\hinda\mvnproject"/>
    <property name="os.arch" value="amd64"/>
    <property name="java.vm.specification.name" value="Java Virtual Machine Specification"/>
    <property name="java.awt.printerjob" value="sun.awt.windows.WPrinterJob"/>
    <property name="sun.os.patch.level" value=""/>
    <property name="java.library.path" value="C:\Program Files\Java\jre1.8.0_281\bin;C:\WINDOWS\Sun\Java\bin;C:\WINDOWS\system32;C:\WINDOWS;C:\Program Files (x86)\Common Files\Oracle\Java\javapath;C:\Program Files\Common Files\Oracle\Java\javapath;C:\Windows\system32;C:\Windows;C:\Windows\System32\Wbem;C:\Windows\System32\WindowsPowerShell\v1.0\;C:\Windows\System32\OpenSSH\;C:\Program Files (x86)\NVIDIA Corporation\PhysX\Common;C:\Program Files\nodejs\;C:\WINDOWS\system32;C:\WINDOWS;C:\WINDOWS\System32\Wbem;C:\WINDOWS\System32\WindowsPowerShell\v1.0\;C:\WINDOWS\System32\OpenSSH\;C:\Program Files\MATLAB\R2021a\runtime\win64;C:\Program Files\MATLAB\R2021a\bin;C:\Program Files\Git\cmd;C:\Users\hinda\apache-maven-3.8.1-bin\apache-maven-3.8.1\bin;C:\Users\hinda\AppData\Local\Programs\Python\Python39\Scripts\;C:\Users\hinda\AppData\Local\Programs\Python\Python39\;C:\Users\hinda\AppData\Local\Microsoft\WindowsApps;C:\Users\hinda\AppData\Local\Programs\Microsoft VS Code\bin;C:\Users\hinda\Dropbox\My PC (LAPTOP-1JFAT6T5)\Downloads\maven\bin;C:\Program Files\Java\jdk-11.0.10\bin;C:\Users\hinda\OneDrive\Työpöytä\maven\bin\mvn.cmd;C:\Users\hinda\AppData\Roaming\npm;C:\Program Files\nodejs\node_modules\npm\bin;;."/>
    <property name="java.vm.info" value="mixed mode"/>
    <property name="java.vendor" value="Oracle Corporation"/>
    <property name="java.vm.version" value="25.281-b09"/>
    <property name="java.ext.dirs" value="C:\Program Files\Java\jre1.8.0_281\lib\ext;C:\WINDOWS\Sun\Java\lib\ext"/>
    <property name="sun.io.unicode.encoding" value="UnicodeLittle"/>
    <property name="java.class.version" value="52.0"/>
  </properties>
  <testcase name="testValidateEmptyBase" classname="fi.vamk.e1901111.ReferenceValidatorTest" time="0.001"/>
  <testcase name="testValidateBaseLengthMax" classname="fi.vamk.e1901111.ReferenceValidatorTest" time="0"/>
  <testcase name="testValidateBaseLengthMin" classname="fi.vamk.e1901111.ReferenceValidatorTest" time="0"/>
  <testcase name="testValidateNullBase" classname="fi.vamk.e1901111.ReferenceValidatorTest" time="0"/>
  <testcase name="testNegativeAmount" classname="fi.vamk.e1901111.ReferenceValidatorTest" time="0"/>
  <testcase name="testGenerateTwentyValidRefCodes2" classname="fi.vamk.e1901111.ReferenceValidatorTest" time="0"/>
  <testcase name="testGenerateTwentyValidRefCodes" classname="fi.vamk.e1901111.ReferenceValidatorTest" time="0"/>
  <testcase name="testZeroAmount" classname="fi.vamk.e1901111.ReferenceValidatorTest" time="0"/>
  <testcase name="testValidateBaseLengthMax2" classname="fi.vamk.e1901111.ReferenceValidatorTest" time="0"/>
  <testcase name="testValidateBaseLengthMin2" classname="fi.vamk.e1901111.ReferenceValidatorTest" time="0"/>
  <testcase name="testGenerateMillionRefCodes" classname="fi.vamk.e1901111.ReferenceValidatorTest" time="0.18"/>
</testsuite>